{
  "name": "Library",
  "imgsrc": "https://s3.amazonaws.com/files.d20.io/images/4581120/KeZwDV4t3psE-FSaAelDzQ/thumb.png?1404156837",
  "where": [
    "first",
    "second"
  ],
  "msg": "If you end your turn here, gain 1 Knowledge.",
  "event": 1,
  "exits": [
    "south",
    "west"
  ]
}
