{
  "name": "Servants' Quarters",
  "imgsrc": "https://s3.amazonaws.com/files.d20.io/images/3481595/ItbjJs3QpXYTufDx-8IFcg/thumb.png?1395451146",
  "where": [
    "basement",
    "second"
  ],
  "omen": 1,
  "exits": [
    "north",
    "south",
    "east",
    "west"
  ]
}
